systolic_array.sim/sim_1/behav/xsim/simulate.log
Time resolution is 1 ps

========================================
[TB]  RUN 1: Clean burst (reference)
========================================
[REF]  beat 0 ACCEPTED  tdata=0xa000a00c8000a000a00c8000a000a00c8  tlast=0  time=106000
[REF]  beat 1 ACCEPTED  tdata=0xa00c800c8000a00c800c8000a00c800c8  tlast=0  time=116000
[REF]  beat 2 ACCEPTED  tdata=0xc800c800c800c800c800c800c800c800c8  tlast=0  time=126000
[REF]  beat 3 ACCEPTED  tdata=0xa000a00c8000a000a00c8000a000a00c8  tlast=0  time=136000
[REF]  beat 4 ACCEPTED  tdata=0xa00c800c8000a00c800c8000a00c800c8  tlast=0  time=146000
[REF]  beat 5 ACCEPTED  tdata=0xc800c800c800c800c800c800c800c800c8  tlast=0  time=156000
[REF]  beat 6 ACCEPTED  tdata=0xa000a00c8000a000a00c8000a000a00c8  tlast=0  time=166000
[REF]  beat 7 ACCEPTED  tdata=0xa00c800c8000a00c800c8000a00c800c8  tlast=0  time=176000
[REF]  beat 8 ACCEPTED  tdata=0xc800c800c800c800c800c800c800c800c8  tlast=1  time=186000
[REF]  All input beats sent  time=190000
[OUT] beat 0 : tdata=0x1efffffde4fffffe52000000000000000100010001000100010001000100010001  tlast=0  time=415000
[OUT] beat 1 : tdata=0xdc0000019afffffc18000000000000000100020002000200020002000200020001  tlast=0  time=425000
[OUT] beat 2 : tdata=0x25800000258fffffc18000000000000000100020004000400040004000400020001  tlast=0  time=435000
[OUT] beat 3 : tdata=0x1efffffde4fffffe52000000000000000100020004000800080008000400020001  tlast=0  time=445000
[OUT] beat 4 : tdata=0xdc0000019afffffc18000000000000000100020004000800100008000400020001  tlast=0  time=455000
[OUT] beat 5 : tdata=0x25800000258fffffc18000000000000000100020004000800080008000400020001  tlast=0  time=465000
[OUT] beat 6 : tdata=0x1efffffde4fffffe52000000000000000100020004000400040004000400020001  tlast=0  time=475000
[OUT] beat 7 : tdata=0xdc0000019afffffc18000000000000000100020002000200020002000200020001  tlast=0  time=485000
[REF]  m_axis_tlast seen — output complete  time=495000
[OUT] beat 8 : tdata=0x25800000258fffffc18000000000000000100010001000100010001000100010001  tlast=1  time=495000
[REF]  Settling done — ready for next run  time=695000
[REF]  Snapshot: 9 beats captured  time=695000

========================================
[TB]  RUN 2: 5-cycle INPUT stall after beat 3
========================================
[STALL]  beat 0 ACCEPTED  tdata=0xa000a00c8000a000a00c8000a000a00c8  tlast=0  time=746000
[STALL]  beat 1 ACCEPTED  tdata=0xa00c800c8000a00c800c8000a00c800c8  tlast=0  time=756000
[STALL]  beat 2 ACCEPTED  tdata=0xc800c800c800c800c800c800c800c800c8  tlast=0  time=766000
[STALL]  beat 3 ACCEPTED  tdata=0xa000a00c8000a000a00c8000a000a00c8  tlast=0  time=776000
[STALL]  >>> INPUT STALL: tvalid LOW for 5 cycles  time=780000 <<<
[STALL]  >>> INPUT RESUME  time=840000 <<<
[STALL]  beat 4 ACCEPTED (post-stall)  tdata=0xa00c800c8000a00c800c8000a00c800c8  tlast=0  time=876000
[STALL]  beat 5 ACCEPTED  tdata=0xc800c800c800c800c800c800c800c800c8  tlast=0  time=886000
[STALL]  beat 6 ACCEPTED  tdata=0xa000a00c8000a000a00c8000a000a00c8  tlast=0  time=896000
[STALL]  beat 7 ACCEPTED  tdata=0xa00c800c8000a00c800c8000a00c800c8  tlast=0  time=906000
[STALL]  beat 8 ACCEPTED  tdata=0xc800c800c800c800c800c800c800c800c8  tlast=1  time=916000
[STALL]  All input beats sent  time=920000
[OUT] beat 0 : tdata=0x1efffffde4fffffe52000000000000000100010001000100010001000100010001  tlast=0  time=1145000
[OUT] beat 1 : tdata=0xdc0000019afffffc18000000000000000100020002000200020002000200020001  tlast=0  time=1155000
[OUT] beat 2 : tdata=0x25800000258fffffc18000000000000000100020004000400040004000400020001  tlast=0  time=1165000
[OUT] beat 3 : tdata=0x1efffffde4fffffe52000000000000000100020004000800080008000400020001  tlast=0  time=1175000
[OUT] beat 4 : tdata=0xdc0000019afffffc18000000000000000100020004000800100008000400020001  tlast=0  time=1185000
[OUT] beat 5 : tdata=0x25800000258fffffc18000000000000000100020004000800080008000400020001  tlast=0  time=1195000
[OUT] beat 6 : tdata=0x1efffffde4fffffe52000000000000000100020004000400040004000400020001  tlast=0  time=1205000
[OUT] beat 7 : tdata=0xdc0000019afffffc18000000000000000100020002000200020002000200020001  tlast=0  time=1215000
[STALL]  m_axis_tlast seen — output complete  time=1225000
[OUT] beat 8 : tdata=0x25800000258fffffc18000000000000000100010001000100010001000100010001  tlast=1  time=1225000
[STALL]  Settling done — ready for next run  time=1425000
[STALL]  Snapshot: 9 beats captured  time=1425000

========================================
[TB]  RUN 3: Output backpressure — tready LOW for 6 cycles after output beat 2
========================================
[BP]  beat 0 ACCEPTED  tdata=0xa000a00c8000a000a00c8000a000a00c8  tlast=0  time=1476000
[BP]  beat 1 ACCEPTED  tdata=0xa00c800c8000a00c800c8000a00c800c8  tlast=0  time=1486000
[BP]  beat 2 ACCEPTED  tdata=0xc800c800c800c800c800c800c800c800c8  tlast=0  time=1496000
[BP]  beat 3 ACCEPTED  tdata=0xa000a00c8000a000a00c8000a000a00c8  tlast=0  time=1506000
[BP]  beat 4 ACCEPTED  tdata=0xa00c800c8000a00c800c8000a00c800c8  tlast=0  time=1516000
[BP]  beat 5 ACCEPTED  tdata=0xc800c800c800c800c800c800c800c800c8  tlast=0  time=1526000
[BP]  beat 6 ACCEPTED  tdata=0xa000a00c8000a000a00c8000a000a00c8  tlast=0  time=1536000
[BP]  beat 7 ACCEPTED  tdata=0xa00c800c8000a00c800c8000a00c800c8  tlast=0  time=1546000
[BP]  beat 8 ACCEPTED  tdata=0xc800c800c800c800c800c800c800c800c8  tlast=1  time=1556000
[BP]  All input beats sent  time=1560000
[OUT] beat 0 : tdata=0x1efffffde4fffffe52000000000000000100010001000100010001000100010001  tlast=0  time=1785000
[OUT] beat 1 : tdata=0xdc0000019afffffc18000000000000000100020002000200020002000200020001  tlast=0  time=1795000
[BP]  >>> OUTPUT BP: tready LOW for 6 cycles  time=1800000 <<<
[BP]  >>> OUTPUT BP: tready HIGH again  time=1860000 <<<
[OUT] beat 2 : tdata=0x25800000258fffffc18000000000000000100020004000400040004000400020001  tlast=0  time=1865000
[OUT] beat 3 : tdata=0x1efffffde4fffffe52000000000000000100020004000800080008000400020001  tlast=0  time=1875000
[OUT] beat 4 : tdata=0xdc0000019afffffc18000000000000000100020004000800080008000400020001  tlast=0  time=1885000
[OUT] beat 5 : tdata=0x25800000258fffffc18000000000000000100020004000800080008000400020001  tlast=0  time=1895000
[OUT] beat 6 : tdata=0x1efffffde4fffffe52000000000000000100020004000800100008000400020001  tlast=0  time=1905000
[OUT] beat 7 : tdata=0xdc0000019afffffc18000000000000000100020004000800080008000400020001  tlast=0  time=1915000
[BP]  m_axis_tlast seen — output complete  time=1925000
[OUT] beat 8 : tdata=0x25800000258fffffc18000000000000000100020004000400040004000400020001  tlast=1  time=1925000
[BP]  Settling done — ready for next run  time=2125000
[BP]  Snapshot: 9 beats captured  time=2125000

========================================
[TB]  COMPARISON 1: REF vs INPUT-STALL
========================================
[CMP-INP-STALL] Beat counts match: 9
[CMP-INP-STALL] OK beat 0 : 0x1efffffde4fffffe52000000000000000100010001000100010001000100010001
[CMP-INP-STALL] OK beat 1 : 0xdc0000019afffffc18000000000000000100020002000200020002000200020001
[CMP-INP-STALL] OK beat 2 : 0x25800000258fffffc18000000000000000100020004000400040004000400020001
[CMP-INP-STALL] OK beat 3 : 0x1efffffde4fffffe52000000000000000100020004000800080008000400020001
[CMP-INP-STALL] OK beat 4 : 0xdc0000019afffffc18000000000000000100020004000800100008000400020001
[CMP-INP-STALL] OK beat 5 : 0x25800000258fffffc18000000000000000100020004000800080008000400020001
[CMP-INP-STALL] OK beat 6 : 0x1efffffde4fffffe52000000000000000100020004000400040004000400020001
[CMP-INP-STALL] OK beat 7 : 0xdc0000019afffffc18000000000000000100020002000200020002000200020001
[CMP-INP-STALL] OK beat 8 : 0x25800000258fffffc18000000000000000100010001000100010001000100010001

[CMP-INP-STALL] *** PASS — outputs match reference ***

========================================
[TB]  COMPARISON 2: REF vs OUTPUT-BACKPRESSURE
========================================
[CMP-OUT-BP] Beat counts match: 9
[CMP-OUT-BP] OK beat 0 : 0x1efffffde4fffffe52000000000000000100010001000100010001000100010001
[CMP-OUT-BP] OK beat 1 : 0xdc0000019afffffc18000000000000000100020002000200020002000200020001
